code/ArmCore/wave.vcd
$date
   Mon Jan 27 08:58:22 2025
$end
$version
   Sample VCD Generator
$end
$timescale 1ns $end

$scope module top $end

$var wire 8 B signal_in $end

$upscope $end
$enddefinitions $end

$dumpvars

# Initial value 
b00000011B
$end

#5
b00000011 B

#10
b00000011 B

#15
b00000011 B

#20
b00000011 B

#25
b00000100 B

#30
b00000100 B

#35
b00000100 B

#40
b00000100 B

#45
b00000100 B

#50
b00000100 B

#55
b00000100 B

#60
b00000100 B

#65
b00000100 B

#70
b00000100 B

#75
b00000101 B

#80
b00000101 B

#85
b00000101 B

#90
b00000101 B

#95
b00000101 B

#100
b00000101 B

#105
b00000101 B

#110
b00000101 B

#115
b00000101 B

#120
b00000101 B

#125
b00000110 B

#130
b00000110 B

#135
b00000110 B

#140
b00000110 B

#145
b00000110 B

#150
b00000110 B

#155
b00000110 B

#160
b00000110 B

#165
b00000110 B

#170
b00000110 B

#175
b00000111 B

#180
b00000111 B

#185
b00000111 B

#190
b00000111 B

#195
b00000111 B

#200
b00000111 B

#205
b00000111 B

#210
b00000111 B

#215
b00000111 B

#220
b00000111 B

#225
b00001000 B

#230
b00001000 B

#235
b00001000 B

#240
b00001000 B

#245
b00001000 B

#250
b00001000 B

#255
b00001000 B

#260
b00001000 B

#265
b00001000 B

#270
b00001000 B

#275
b00000000 B

#280
b00000000 B

#285
b00000000 B

#290
b00000000 B

#295
b00000000 B

#300
b00000000 B

#305
b00000000 B

#310
b00000000 B

#315
b00000000 B

#320
b00000000 B

#325
b00000001 B

#330
b00000001 B

#335
b00000001 B

#340
b00000001 B

#345
b00000001 B

#350
b00000001 B

#355
b00000001 B

#360
b00000001 B

#365
b00000001 B

#370
b00000001 B

#375
b00000010 B

#380
b00000010 B

#385
b00000010 B

#390
b00000010 B

#395
b00000010 B

#400
b00000010 B

#405
b00000010 B

#410
b00000010 B

#415
b00000010 B

#420
b00000010 B

#425
b00000011 B

#430
b00000011 B

#435
b00000011 B

#440
b00000011 B

#445
b00000011 B

#450
b00000011 B

#455
b00000011 B

#460
b00000011 B

#465
b00000011 B

#470
b00000011 B

#475
b00000100 B

#480
b00000100 B

#485
b00000100 B

#490
b00000100 B

#495
b00000100 B

#500
b00000100 B

#505
b00000100 B

#510
b00000100 B

#515
b00000100 B

#520
b00000100 B

#525
b00000101 B

#530
b00000101 B

#535
b00000101 B

#540
b00000101 B

#545
b00000101 B

#550
b00000101 B

#555
b00000101 B

#560
b00000101 B

#565
b00000101 B

#570
b00000101 B

#575
b00000110 B

#580
b00000110 B

#585
b00000110 B

#590
b00000110 B

#595
b00000110 B

#600
b00000110 B

#605
b00000110 B

#610
b00000110 B

#615
b00000110 B

#620
b00000110 B

#625
b00000111 B

#630
b00000111 B

#635
b00000111 B

#640
b00000111 B

#645
b00000111 B

#650
b00000111 B

#655
b00000111 B

#660
b00000111 B

#665
b00000111 B

#670
b00000111 B

#675
b00001000 B

#680
b00001000 B

#685
b00001000 B

#690
b00001000 B

#695
b00001000 B

#700
b00001000 B

#705
b00001000 B

#710
b00001000 B

#715
b00001000 B

#720
b00001000 B

#725
b00000000 B

#730
b00000000 B

#735
b00000000 B

#740
b00000000 B

#745
b00000000 B

#750
b00000000 B

#755
b00000000 B

#760
b00000000 B

#765
b00000000 B

#770
b00000000 B

#775
b00000001 B

#780
b00000001 B

#785
b00000001 B

#790
b00000001 B

#795
b00000001 B

#800
b00000001 B

#805
b00000001 B

#810
b00000001 B

#815
b00000001 B

#820
b00000001 B

#825
b00000010 B

#830
b00000010 B

#835
b00000010 B

#840
b00000010 B

#845
b00000010 B

#850
b00000010 B

#855
b00000010 B

#860
b00000010 B

#865
b00000010 B

#870
b00000010 B

#875
b00000011 B

#880
b00000011 B

#885
b00000011 B

#890
b00000011 B

#895
b00000011 B

#900
b00000011 B

#905
b00000011 B

#910
b00000011 B

#915
b00000011 B

#920
b00000011 B

#925
b00000100 B

#930
b00000100 B

#935
b00000100 B

#940
b00000100 B

#945
b00000100 B

#950
b00000100 B

#955
b00000100 B

#960
b00000100 B

#965
b00000100 B

#970
b00000100 B

#975
b00000101 B

#980
b00000101 B

#985
b00000101 B

#990
b00000101 B

#995
b00000101 B

#1000
b00000101 B

#1005
b00000101 B

#1010
b00000101 B

#1015
b00000101 B

#1020
b00000101 B

#1025
b00000110 B

#1030
b00000110 B

#1035
b00000110 B

#1040
b00000110 B

#1045
b00000110 B

#1050
b00000110 B

#1055
b00000110 B

#1060
b00000110 B

#1065
b00000110 B

#1070
b00000110 B

#1075
b00000111 B

#1080
b00000111 B

#1085
b00000111 B

#1090
b00000111 B

#1095
b00000111 B

#1100
b00000111 B

#1105
b00000111 B

#1110
b00000111 B

#1115
b00000111 B

#1120
b00000111 B

#1125
b00001000 B

#1130
b00001000 B

#1135
b00001000 B

#1140
b00001000 B

#1145
b00001000 B

#1150
b00001000 B

#1155
b00001000 B

#1160
b00001000 B

#1165
b00001000 B

#1170
b00001000 B

#1175
b00000000 B

#1180
b00000000 B

#1185
b00000000 B

#1190
b00000000 B

#1195
b00000000 B

#1200
b00000000 B

#1205
b00000000 B

#1210
b00000000 B

#1215
b00000000 B

#1220
b00000000 B

#1225
b00000001 B

#1230
b00000001 B

#1235
b00000001 B

#1240
b00000001 B

#1245
b00000001 B

#1250
b00000001 B

#1255
b00000001 B

#1260
b00000001 B

#1265
b00000001 B

#1270
b00000001 B

#1275
b00000010 B

#1280
b00000010 B

#1285
b00000010 B

#1290
b00000010 B

#1295
b00000010 B

#1300
b00000010 B

#1305
b00000010 B

#1310
b00000010 B

#1315
b00000010 B

#1320
b00000010 B

#1325
b00000011 B

#1330
b00000011 B

#1335
b00000011 B

#1340
b00000011 B

#1345
b00000011 B

#1350
b00000011 B

#1355
b00000011 B

#1360
b00000011 B

#1365
b00000011 B

#1370
b00000011 B

#1375
b00000100 B

#1380
b00000100 B

#1385
b00000100 B

#1390
b00000100 B

#1395
b00000100 B

#1400
b00000100 B

#1405
b00000100 B

#1410
b00000100 B

#1415
b00000100 B

#1420
b00000100 B

#1425
b00000101 B

#1430
b00000101 B

#1435
b00000101 B

#1440
b00000101 B

#1445
b00000101 B

#1450
b00000101 B

#1455
b00000101 B

#1460
b00000101 B

#1465
b00000101 B

#1470
b00000101 B

#1475
b00000110 B

#1480
b00000110 B

#1485
b00000110 B

#1490
b00000110 B

#1495
b00000110 B

#1500
b00000110 B

#1505
b00000110 B

#1510
b00000110 B

#1515
b00000110 B

#1520
b00000110 B

#1525
b00000111 B

#1530
b00000111 B

#1535
b00000111 B

#1540
b00000111 B

#1545
b00000111 B

#1550
b00000111 B

#1555
b00000111 B

#1560
b00000111 B

#1565
b00000111 B

#1570
b00000111 B

#1575
b00001000 B

#1580
b00001000 B

#1585
b00001000 B

#1590
b00001000 B

#1595
b00001000 B

#1600
b00001000 B

#1605
b00001000 B

#1610
b00001000 B

#1615
b00001000 B

#1620
b00001000 B

#1625
b00000000 B

#1630
b00000000 B

#1635
b00000000 B

#1640
b00000000 B

#1645
b00000000 B

#1650
b00000000 B

#1655
b00000000 B

#1660
b00000000 B

#1665
b00000000 B

#1670
b00000000 B

#1675
b00000001 B

#1680
b00000001 B

#1685
b00000001 B

#1690
b00000001 B

#1695
b00000001 B

#1700
b00000001 B

#1705
b00000001 B

#1710
b00000001 B

#1715
b00000001 B

#1720
b00000001 B

#1725
b00000010 B

#1730
b00000010 B

#1735
b00000010 B

#1740
b00000010 B

#1745
b00000010 B

#1750
b00000010 B

#1755
b00000010 B

#1760
b00000010 B

#1765
b00000010 B

#1770
b00000010 B

#1775
b00000011 B

#1780
b00000011 B

#1785
b00000011 B

#1790
b00000011 B

#1795
b00000011 B

#1800
b00000011 B

#1805
b00000011 B

#1810
b00000011 B

#1815
b00000011 B

#1820
b00000011 B

#1825
b00000100 B

#1830
b00000100 B

#1835
b00000100 B

#1840
b00000100 B

#1845
b00000100 B

#1850
b00000100 B

#1855
b00000100 B

#1860
b00000100 B

#1865
b00000100 B

#1870
b00000100 B

#1875
b00000101 B

#1880
b00000101 B

#1885
b00000101 B

#1890
b00000101 B

#1895
b00000101 B

#1900
b00000101 B

#1905
b00000101 B

#1910
b00000101 B

#1915
b00000101 B

#1920
b00000101 B

#1925
b00000110 B

#1930
b00000110 B

#1935
b00000110 B

#1940
b00000110 B

#1945
b00000110 B

#1950
b00000110 B

#1955
b00000110 B

#1960
b00000110 B

#1965
b00000110 B

#1970
b00000110 B

#1975
b00000111 B

#1980
b00000111 B

#1985
b00000111 B

#1990
b00000111 B

#1995
b00000111 B

#2000
b00000111 B

#2005
b00000111 B

#2010
b00000111 B

#2015
b00000111 B

#2020
b00000111 B

#2025
b00001000 B

#2030
b00001000 B

#2035
b00001000 B

#2040
b00001000 B

#2045
b00001000 B

#2050
b00001000 B

#2055
b00001000 B

#2060
b00001000 B

#2065
b00001000 B

#2070
b00001000 B

#2075
b00000000 B

#2080
b00000000 B

#2085
b00000000 B

#2090
b00000000 B

#2095
b00000000 B

#2100
b00000000 B

#2105
b00000000 B

#2110
b00000000 B

#2115
b00000000 B

#2120
b00000000 B

#2125
b00000001 B

#2130
b00000001 B

#2135
b00000001 B

#2140
b00000001 B

#2145
b00000001 B

#2150
b00000001 B

#2155
b00000001 B

#2160
b00000001 B

#2165
b00000001 B

#2170
b00000001 B

#2175
b00000010 B

#2180
b00000010 B

#2185
b00000010 B

#2190
b00000010 B

#2195
b00000010 B

#2200
b00000010 B

#2205
b00000010 B

#2210
b00000010 B

#2215
b00000010 B

#2220
b00000010 B

#2225
b00000011 B

#2230
b00000011 B

#2235
b00000011 B

#2240
b00000011 B

#2245
b00000011 B

#2250
b00000011 B

#2255
b00000011 B

#2260
b00000011 B

#2265
b00000011 B

#2270
b00000011 B

#2275
b00000100 B

#2280
b00000100 B

#2285
b00000100 B

#2290
b00000100 B

#2295
b00000100 B

#2300
b00000100 B

#2305
b00000100 B

#2310
b00000100 B

#2315
b00000100 B

#2320
b00000100 B

#2325
b00000101 B

#2330
b00000101 B

#2335
b00000101 B

#2340
b00000101 B

#2345
b00000101 B

#2350
b00000101 B

#2355
b00000101 B

#2360
b00000101 B

#2365
b00000101 B

#2370
b00000101 B

#2375
b00000110 B

#2380
b00000110 B

#2385
b00000110 B

#2390
b00000110 B

#2395
b00000110 B

#2400
b00000110 B

#2405
b00000110 B

#2410
b00000110 B

#2415
b00000110 B

#2420
b00000110 B

#2425
b00000111 B

#2430
b00000111 B

#2435
b00000111 B

#2440
b00000111 B

#2445
b00000111 B

#2450
b00000111 B

#2455
b00000111 B

#2460
b00000111 B

#2465
b00000111 B

#2470
b00000111 B

#2475
b00001000 B

#2480
b00001000 B

#2485
b00001000 B

#2490
b00001000 B

#2495
b00001000 B

#2500
b00001000 B

#2505
b00001000 B

#2510
b00001000 B

#2515
b00001000 B

#2520
b00001000 B

#2525
b00000000 B

#2530
b00000000 B

#2535
b00000000 B

#2540
b00000000 B

#2545
b00000000 B

#2550
b00000000 B

#2555
b00000000 B

#2560
b00000000 B

#2565
b00000000 B

#2570
b00000000 B

#2575
b00000001 B

#2580
b00000001 B

#2585
b00000001 B

#2590
b00000001 B

#2595
b00000001 B

#2600
b00000001 B

#2605
b00000001 B

#2610
b00000001 B

#2615
b00000001 B

#2620
b00000001 B

#2625
b00000010 B

#2630
b00000010 B

#2635
b00000010 B

#2640
b00000010 B

#2645
b00000010 B

#2650
b00000010 B

#2655
b00000010 B

#2660
b00000010 B

#2665
b00000010 B

#2670
b00000010 B

#2675
b00000011 B

#2680
b00000011 B

#2685
b00000011 B

#2690
b00000011 B

#2695
b00000011 B

#2700
b00000011 B

#2705
b00000011 B

#2710
b00000011 B

#2715
b00000011 B

#2720
b00000011 B

#2725
b00000100 B

#2730
b00000100 B

#2735
b00000100 B

#2740
b00000100 B

#2745
b00000100 B

#2750
b00000100 B

#2755
b00000100 B

#2760
b00000100 B

#2765
b00000100 B

#2770
b00000100 B

#2775
b00000101 B

#2780
b00000101 B

#2785
b00000101 B

#2790
b00000101 B

#2795
b00000101 B

#2800
b00000101 B

#2805
b00000101 B

#2810
b00000101 B

#2815
b00000101 B

#2820
b00000101 B

#2825
b00000110 B

#2830
b00000110 B

#2835
b00000110 B

#2840
b00000110 B

#2845
b00000110 B

#2850
b00000110 B

#2855
b00000110 B

#2860
b00000110 B

#2865
b00000110 B

#2870
b00000110 B

#2875
b00000111 B

#2880
b00000111 B

#2885
b00000111 B

#2890
b00000111 B

#2895
b00000111 B

#2900
b00000111 B

#2905
b00000111 B

#2910
b00000111 B

#2915
b00000111 B

#2920
b00000111 B

#2925
b00001000 B

#2930
b00001000 B

#2935
b00001000 B

#2940
b00001000 B

#2945
b00001000 B

#2950
b00001000 B

#2955
b00001000 B

#2960
b00001000 B

#2965
b00001000 B

#2970
b00001000 B

#2975
b00000000 B

#2980
b00000000 B

#2985
b00000000 B

#2990
b00000000 B

#2995
b00000000 B

#3000
b00000000 B

#3005
b00000000 B

#3010
b00000000 B

#3015
b00000000 B

#3020
b00000000 B

#3025
b00000001 B

#3030
b00000001 B

#3035
b00000001 B

#3040
b00000001 B

#3045
b00000001 B

#3050
b00000001 B

#3055
b00000001 B

#3060
b00000001 B

#3065
b00000001 B

#3070
b00000001 B

#3075
b00000010 B

#3080
b00000010 B

#3085
b00000010 B

#3090
b00000010 B

#3095
b00000010 B

#3100
b00000010 B

#3105
b00000010 B

#3110
b00000010 B

#3115
b00000010 B

#3120
b00000010 B

#3125
b00000011 B

#3130
b00000011 B

#3135
b00000011 B

#3140
b00000011 B

#3145
b00000011 B

#3150
b00000011 B

#3155
b00000011 B

#3160
b00000011 B

#3165
b00000011 B

#3170
b00000011 B

#3175
b00000100 B

#3180
b00000100 B

#3185
b00000100 B

#3190
b00000100 B

#3195
b00000100 B

#3200
b00000100 B

#3205
b00000100 B

#3210
b00000100 B

#3215
b00000100 B

#3220
b00000100 B

#3225
b00000101 B

#3230
b00000101 B

#3235
b00000101 B

#3240
b00000101 B

#3245
b00000101 B

#3250
b00000101 B

#3255
b00000101 B

#3260
b00000101 B

#3265
b00000101 B

#3270
b00000101 B

#3275
b00000110 B

#3280
b00000110 B

#3285
b00000110 B

#3290
b00000110 B

#3295
b00000110 B

#3300
b00000110 B

#3305
b00000110 B

#3310
b00000110 B

#3315
b00000110 B

#3320
b00000110 B

#3325
b00000111 B

#3330
b00000111 B

#3335
b00000111 B

#3340
b00000111 B

#3345
b00000111 B

#3350
b00000111 B

#3355
b00000111 B

#3360
b00000111 B

#3365
b00000111 B

#3370
b00000111 B

#3375
b00001000 B

#3380
b00001000 B

#3385
b00001000 B

#3390
b00001000 B

#3395
b00001000 B

#3400
b00001000 B

#3405
b00001000 B

#3410
b00001000 B

#3415
b00001000 B

#3420
b00001000 B

#3425
b00000000 B

#3430
b00000000 B

#3435
b00000000 B

#3440
b00000000 B

#3445
b00000000 B

#3450
b00000000 B

#3455
b00000000 B

#3460
b00000000 B

#3465
b00000000 B

#3470
b00000000 B

#3475
b00000001 B

#3480
b00000001 B

#3485
b00000001 B

#3490
b00000001 B

#3495
b00000001 B

#3500
b00000001 B

#3505
b00000001 B

#3510
b00000001 B

#3515
b00000001 B

#3520
b00000001 B

#3525
b00000010 B

#3530
b00000010 B

#3535
b00000010 B

#3540
b00000010 B

#3545
b00000010 B

#3550
b00000010 B

#3555
b00000010 B

#3560
b00000010 B

#3565
b00000010 B

#3570
b00000010 B

#3575
b00000011 B

#3580
b00000011 B

#3585
b00000011 B

#3590
b00000011 B

#3595
b00000011 B

#3600
b00000011 B

#3605
b00000011 B

#3610
b00000011 B

#3615
b00000011 B

#3620
b00000011 B

#3625
b00000100 B

#3630
b00000100 B

#3635
b00000100 B

#3640
b00000100 B

#3645
b00000100 B

#3650
b00000100 B

#3655
b00000100 B

#3660
b00000100 B

#3665
b00000100 B

#3670
b00000100 B

#3675
b00000101 B

#3680
b00000101 B

#3685
b00000101 B

#3690
b00000101 B

#3695
b00000101 B

#3700
b00000101 B

#3705
b00000101 B

#3710
b00000101 B

#3715
b00000101 B

#3720
b00000101 B

#3725
b00000110 B

#3730
b00000110 B

#3735
b00000110 B

#3740
b00000110 B

#3745
b00000110 B

#3750
b00000110 B

#3755
b00000110 B

#3760
b00000110 B

#3765
b00000110 B

#3770
b00000110 B

#3775
b00000111 B

#3780
b00000111 B

#3785
b00000111 B

#3790
b00000111 B

#3795
b00000111 B

#3800
b00000111 B

#3805
b00000111 B

#3810
b00000111 B

#3815
b00000111 B

#3820
b00000111 B

#3825
b00001000 B

#3830
b00001000 B

#3835
b00001000 B

#3840
b00001000 B

#3845
b00001000 B

#3850
b00001000 B

#3855
b00001000 B

#3860
b00001000 B

#3865
b00001000 B

#3870
b00001000 B

#3875
b00000000 B

#3880
b00000000 B

#3885
b00000000 B

#3890
b00000000 B

#3895
b00000000 B

#3900
b00000000 B

#3905
b00000000 B

#3910
b00000000 B

#3915
b00000000 B

#3920
b00000000 B

#3925
b00000001 B

#3930
b00000001 B

#3935
b00000001 B

#3940
b00000001 B

#3945
b00000001 B

#3950
b00000001 B

#3955
b00000001 B

#3960
b00000001 B

#3965
b00000001 B

#3970
b00000001 B

#3975
b00000010 B

#3980
b00000010 B

#3985
b00000010 B

#3990
b00000010 B

#3995
b00000010 B

#4000
b00000010 B

#4005
b00000010 B

#4010
b00000010 B

#4015
b00000010 B

#4020
b00000010 B

#4025
b00000011 B

#4030
b00000011 B

#4035
b00000011 B

#4040
b00000011 B

#4045
b00000011 B

#4050
b00000011 B

#4055
b00000011 B

#4060
b00000011 B

#4065
b00000011 B

#4070
b00000011 B

#4075
b00000100 B

#4080
b00000100 B

#4085
b00000100 B

#4090
b00000100 B

#4095
b00000100 B

#4100
b00000100 B

#4105
b00000100 B

#4110
b00000100 B

#4115
b00000100 B

#4120
b00000100 B

#4125
b00000101 B

#4130
b00000101 B

#4135
b00000101 B

#4140
b00000101 B

#4145
b00000101 B

#4150
b00000101 B

#4155
b00000101 B

#4160
b00000101 B

#4165
b00000101 B

#4170
b00000101 B

#4175
b00000110 B

#4180
b00000110 B

#4185
b00000110 B

#4190
b00000110 B

#4195
b00000110 B

#4200
b00000110 B

#4205
b00000110 B

#4210
b00000110 B

#4215
b00000110 B

#4220
b00000110 B

#4225
b00000111 B

#4230
b00000111 B

#4235
b00000111 B

#4240
b00000111 B

#4245
b00000111 B

#4250
b00000111 B

#4255
b00000111 B

#4260
b00000111 B

#4265
b00000111 B

#4270
b00000111 B

#4275
b00001000 B

#4280
b00001000 B

#4285
b00001000 B

#4290
b00001000 B

#4295
b00001000 B

#4300
b00001000 B

#4305
b00001000 B

#4310
b00001000 B

#4315
b00001000 B

#4320
b00001000 B

#4325
b00000000 B

#4330
b00000000 B

#4335
b00000000 B

#4340
b00000000 B

#4345
b00000000 B

#4350
b00000000 B

#4355
b00000000 B

#4360
b00000000 B

#4365
b00000000 B

#4370
b00000000 B

#4375
b00000001 B

#4380
b00000001 B

#4385
b00000001 B

#4390
b00000001 B

#4395
b00000001 B

#4400
b00000001 B

#4405
b00000001 B

#4410
b00000001 B

#4415
b00000001 B

#4420
b00000001 B

#4425
b00000010 B

#4430
b00000010 B

#4435
b00000010 B

#4440
b00000010 B

#4445
b00000010 B

#4450
b00000010 B

#4455
b00000010 B

#4460
b00000010 B

#4465
b00000010 B

#4470
b00000010 B

#4475
b00000011 B

#4480
b00000011 B

#4485
b00000011 B

#4490
b00000011 B

#4495
b00000011 B

#4500
b00000011 B

#4505
b00000011 B

#4510
b00000011 B

#4515
b00000011 B

#4520
b00000011 B

#4525
b00000100 B

#4530
b00000100 B

#4535
b00000100 B

#4540
b00000100 B

#4545
b00000100 B

#4550
b00000100 B

#4555
b00000100 B

#4560
b00000100 B

#4565
b00000100 B

#4570
b00000100 B

#4575
b00000101 B

#4580
b00000101 B

#4585
b00000101 B

#4590
b00000101 B

#4595
b00000101 B

#4600
b00000101 B

#4605
b00000101 B

#4610
b00000101 B

#4615
b00000101 B

#4620
b00000101 B

#4625
b00000110 B

#4630
b00000110 B

#4635
b00000110 B

#4640
b00000110 B

#4645
b00000110 B

#4650
b00000110 B

#4655
b00000110 B

#4660
b00000110 B

#4665
b00000110 B

#4670
b00000110 B

#4675
b00000111 B

#4680
b00000111 B

#4685
b00000111 B

#4690
b00000111 B

#4695
b00000111 B

#4700
b00000111 B

#4705
b00000111 B

#4710
b00000111 B

#4715
b00000111 B

#4720
b00000111 B

#4725
b00001000 B

#4730
b00001000 B

#4735
b00001000 B

#4740
b00001000 B

#4745
b00001000 B

#4750
b00001000 B

#4755
b00001000 B

#4760
b00001000 B

#4765
b00001000 B

#4770
b00001000 B

#4775
b00000000 B

#4780
b00000000 B

#4785
b00000000 B

#4790
b00000000 B

#4795
b00000000 B

#4800
b00000000 B

#4805
b00000000 B

#4810
b00000000 B

#4815
b00000000 B

#4820
b00000000 B

#4825
b00000001 B

#4830
b00000001 B

#4835
b00000001 B

#4840
b00000001 B

#4845
b00000001 B

#4850
b00000001 B

#4855
b00000001 B

#4860
b00000001 B

#4865
b00000001 B

#4870
b00000001 B

#4875
b00000010 B

#4880
b00000010 B

#4885
b00000010 B

#4890
b00000010 B

#4895
b00000010 B

#4900
b00000010 B

#4905
b00000010 B

#4910
b00000010 B

#4915
b00000010 B

#4920
b00000010 B

#4925
b00000011 B

#4930
b00000011 B

#4935
b00000011 B

#4940
b00000011 B

#4945
b00000011 B

#4950
b00000011 B

#4955
b00000011 B

#4960
b00000011 B

#4965
b00000011 B

#4970
b00000011 B

#4975
b00000100 B

#4980
b00000100 B

#4985
b00000100 B

#4990
b00000100 B

#4995
b00000100 B

#5000
b00000100 B

#5005
b00000100 B

#5010
b00000100 B

#5015
b00000100 B

#5020
b00000100 B

#5025
b00000101 B

#5030
b00000101 B

#5035
b00000101 B

#5040
b00000101 B

#5045
b00000101 B

#5050
b00000101 B

#5055
b00000101 B

#5060
b00000101 B

#5065
b00000101 B

#5070
b00000101 B

#5075
b00000110 B

#5080
b00000110 B

#5085
b00000110 B

#5090
b00000110 B

#5095
b00000110 B

#5100
b00000110 B

#5105
b00000110 B

#5110
b00000110 B

#5115
b00000110 B

#5120
b00000110 B

#5125
b00000111 B

#5130
b00000111 B

#5135
b00000111 B

#5140
b00000111 B

#5145
b00000111 B

#5150
b00000111 B

#5155
b00000111 B

#5160
b00000111 B

#5165
b00000111 B

#5170
b00000111 B

#5175
b00001000 B

#5180
b00001000 B

#5185
b00001000 B

#5190
b00001000 B

#5195
b00001000 B

#5200
b00001000 B

#5205
b00001000 B

#5210
b00001000 B

#5215
b00001000 B

#5220
b00001000 B

#5225
b00000000 B

#5230
b00000000 B

#5235
b00000000 B

#5240
b00000000 B

#5245
b00000000 B

#5250
b00000000 B

#5255
b00000000 B

#5260
b00000000 B

#5265
b00000000 B

#5270
b00000000 B

#5275
b00000001 B

#5280
b00000001 B

#5285
b00000001 B

#5290
b00000001 B

#5295
b00000001 B

#5300
b00000001 B

#5305
b00000001 B

#5310
b00000001 B

#5315
b00000001 B

#5320
b00000001 B

#5325
b00000010 B

#5330
b00000010 B

#5335
b00000010 B

#5340
b00000010 B

#5345
b00000010 B

#5350
b00000010 B

#5355
b00000010 B

#5360
b00000010 B

#5365
b00000010 B

#5370
b00000010 B

#5375
b00000011 B

#5380
b00000011 B

#5385
b00000011 B

#5390
b00000011 B

#5395
b00000011 B

#5400
b00000011 B

#5405
b00000011 B

#5410
b00000011 B

#5415
b00000011 B

#5420
b00000011 B

#5425
b00000100 B

#5430
b00000100 B

#5435
b00000100 B

#5440
b00000100 B

#5445
b00000100 B

#5450
b00000100 B

#5455
b00000100 B

#5460
b00000100 B

#5465
b00000100 B

#5470
b00000100 B

#5475
b00000101 B

#5480
b00000101 B

#5485
b00000101 B

#5490
b00000101 B

#5495
b00000101 B

#5500
b00000101 B

#5505
b00000101 B

#5510
b00000101 B

#5515
b00000101 B

#5520
b00000101 B

#5525
b00000110 B

#5530
b00000110 B

#5535
b00000110 B

#5540
b00000110 B

#5545
b00000110 B

#5550
b00000110 B

#5555
b00000110 B

#5560
b00000110 B

#5565
b00000110 B

#5570
b00000110 B

#5575
b00000111 B

#5580
b00000111 B

#5585
b00000111 B

#5590
b00000111 B

#5595
b00000111 B

#5600
b00000111 B

#5605
b00000111 B

#5610
b00000111 B

#5615
b00000111 B

#5620
b00000111 B

#5625
b00001000 B

#5630
b00001000 B

#5635
b00001000 B

#5640
b00001000 B

#5645
b00001000 B

#5650
b00001000 B

#5655
b00001000 B

#5660
b00001000 B

#5665
b00001000 B

#5670
b00001000 B

#5675
b00000000 B

#5680
b00000000 B

#5685
b00000000 B

#5690
b00000000 B

#5695
b00000000 B

#5700
b00000000 B

#5705
b00000000 B

#5710
b00000000 B

#5715
b00000000 B

#5720
b00000000 B

#5725
b00000001 B

#5730
b00000001 B

#5735
b00000001 B

#5740
b00000001 B

#5745
b00000001 B

#5750
b00000001 B

#5755
b00000001 B

#5760
b00000001 B

#5765
b00000001 B

#5770
b00000001 B

#5775
b00000010 B

#5780
b00000010 B

#5785
b00000010 B

#5790
b00000010 B

#5795
b00000010 B

#5800
b00000010 B

#5805
b00000010 B

#5810
b00000010 B

#5815
b00000010 B

#5820
b00000010 B

#5825
b00000011 B

#5830
b00000011 B

#5835
b00000011 B

#5840
b00000011 B

#5845
b00000011 B

#5850
b00000011 B

#5855
b00000011 B

#5860
b00000011 B

#5865
b00000011 B

#5870
b00000011 B

#5875
b00000100 B

#5880
b00000100 B

#5885
b00000100 B

#5890
b00000100 B

#5895
b00000100 B

#5900
b00000100 B

#5905
b00000100 B

#5910
b00000100 B

#5915
b00000100 B

#5920
b00000100 B

#5925
b00000101 B

#5930
b00000101 B

#5935
b00000101 B

#5940
b00000101 B

#5945
b00000101 B

#5950
b00000101 B

#5955
b00000101 B

#5960
b00000101 B

#5965
b00000101 B

#5970
b00000101 B

#5975
b00000110 B

#5980
b00000110 B

#5985
b00000110 B

#5990
b00000110 B

#5995
b00000110 B

#6000
b00000110 B

#6005
b00000110 B

#6010
b00000110 B

#6015
b00000110 B

#6020
b00000110 B

#6025
b00000111 B

#6030
b00000111 B

#6035
b00000111 B

#6040
b00000111 B

#6045
b00000111 B

#6050
b00000111 B

#6055
b00000111 B

#6060
b00000111 B

#6065
b00000111 B

#6070
b00000111 B

#6075
b00001000 B

#6080
b00001000 B

#6085
b00001000 B

#6090
b00001000 B

#6095
b00001000 B

#6100
b00001000 B

#6105
b00001000 B

#6110
b00001000 B

#6115
b00001000 B

#6120
b00001000 B

#6125
b00000000 B

#6130
b00000000 B

#6135
b00000000 B

#6140
b00000000 B

#6145
b00000000 B

#6150
b00000000 B

#6155
b00000000 B

#6160
b00000000 B

#6165
b00000000 B

#6170
b00000000 B

#6175
b00000001 B

#6180
b00000001 B

#6185
b00000001 B

#6190
b00000001 B

#6195
b00000001 B

#6200
b00000001 B

#6205
b00000001 B

#6210
b00000001 B

#6215
b00000001 B

#6220
b00000001 B

#6225
b00000010 B

#6230
b00000010 B

#6235
b00000010 B

#6240
b00000010 B

#6245
b00000010 B

#6250
b00000010 B

#6255
b00000010 B

#6260
b00000010 B

#6265
b00000010 B

#6270
b00000010 B

#6275
b00000011 B

#6280
b00000011 B

#6285
b00000011 B

#6290
b00000011 B

#6295
b00000011 B

#6300
b00000011 B

#6305
b00000011 B

#6310
b00000011 B

#6315
b00000011 B

#6320
b00000011 B

#6325
b00000100 B

#6330
b00000100 B

#6335
b00000100 B

#6340
b00000100 B

#6345
b00000100 B

#6350
b00000100 B

#6355
b00000100 B

#6360
b00000100 B

#6365
b00000100 B

#6370
b00000100 B

#6375
b00000101 B

#6380
b00000101 B

#6385
b00000101 B

#6390
b00000101 B

#6395
b00000101 B

#6400
b00000101 B

#6405
b00000101 B

#6410
b00000101 B

#6415
b00000101 B

#6420
b00000101 B

#6425
b00000110 B

#6430
b00000110 B

#6435
b00000110 B

#6440
b00000110 B

#6445
b00000110 B

#6450
b00000110 B

#6455
b00000110 B

#6460
b00000110 B

#6465
b00000110 B

#6470
b00000110 B

#6475
b00000111 B

#6480
b00000111 B

#6485
b00000111 B

#6490
b00000111 B

#6495
b00000111 B

#6500
b00000111 B

#6505
b00000111 B

#6510
b00000111 B

#6515
b00000111 B

#6520
b00000111 B

#6525
b00001000 B

#6530
b00001000 B

#6535
b00001000 B

#6540
b00001000 B

#6545
b00001000 B

#6550
b00001000 B

#6555
b00001000 B

#6560
b00001000 B

#6565
b00001000 B

#6570
b00001000 B

#6575
b00000000 B

#6580
b00000000 B

#6585
b00000000 B

#6590
b00000000 B

#6595
b00000000 B

#6600
b00000000 B

#6605
b00000000 B

#6610
b00000000 B

#6615
b00000000 B

#6620
b00000000 B

#6625
b00000001 B

#6630
b00000001 B

#6635
b00000001 B

#6640
b00000001 B

#6645
b00000001 B

#6650
b00000001 B

#6655
b00000001 B

#6660
b00000001 B

#6665
b00000001 B

#6670
b00000001 B

#6675
b00000010 B

#6680
b00000010 B

#6685
b00000010 B

#6690
b00000010 B

#6695
b00000010 B

#6700
b00000010 B

#6705
b00000010 B

#6710
b00000010 B

#6715
b00000010 B

#6720
b00000010 B

#6725
b00000011 B

#6730
b00000011 B

#6735
b00000011 B

#6740
b00000011 B

#6745
b00000011 B

#6750
b00000011 B

#6755
b00000011 B

#6760
b00000011 B

#6765
b00000011 B

#6770
b00000011 B

#6775
b00000100 B

#6780
b00000100 B

#6785
b00000100 B

#6790
b00000100 B

#6795
b00000100 B

#6800
b00000100 B

#6805
b00000100 B

#6810
b00000100 B

#6815
b00000100 B

#6820
b00000100 B

#6825
b00000101 B

#6830
b00000101 B

#6835
b00000101 B

#6840
b00000101 B

#6845
b00000101 B

